JOB 4 2620v2 16 6 7200
JOB 6 2650v2 128 4 7200
JOB 4 2620v2 64 8 10000
JOB 10 2630v2 16 4 7200
JOB 5 2670v2 96 6 7200
JOB 8 2630v2 32 6 15000
JOB 6 2620v2 192 4 10000
JOB 12 2620v2 192 8 7200
JOB 12 2620v2 192 8 7200
JOB 8 2630v2 32 6 7200
JOB 4 2620v2 32 6 7200
JOB 4 2620v2 32 6 7200
JOB 6 2620v2 64 6 7200
